[
{
  "model": "accounts.customuser",
  "pk": 1,
  "fields": {
    "password": "pbkdf2_sha256$390000$2UGbbHpX90T4e27i6mlGFI$NcbpAEMCR3V5ukevmrJqJ8rDmUAb4FlznwM+5dg4gh8=",
    "last_login": "2023-03-17T09:36:00.025Z",
    "is_superuser": true,
    "username": "admin",
    "first_name": "",
    "last_name": "",
    "email": "admin@email.com",
    "is_staff": true,
    "is_active": true,
    "date_joined": "2023-03-17T09:21:00.075Z",
    "groups": [],
    "user_permissions": []
  }
},
{
  "model": "blog.category",
  "pk": 1,
  "fields": {
    "parent": null,
    "name": "Django",
    "slug": "django",
    "created_at": "2023-03-22T14:56:19.537Z"
  }
},
{
  "model": "blog.category",
  "pk": 2,
  "fields": {
    "parent": 1,
    "name": "Authentification",
    "slug": "authentification",
    "created_at": "2023-03-22T14:57:11.942Z"
  }
}